地方台,#genre#
新闻综合,http://116.234.54.1:7777/tsfile/live/1025_1.m3u8?key=txiptv&playlive=1&authid=0
东方卫视,http://116.234.54.1:7777/tsfile/live/0107_1.m3u8?key=txiptv&playlive=1&authid=0
都市频道,http://116.234.54.1:7777/tsfile/live/1026_1.m3u8?key=txiptv&playlive=1&authid=0
纪实人文,http://116.234.54.1:7777/tsfile/live/1027_1.m3u8?key=txiptv&playlive=1&authid=0
东方影视,http://116.234.54.1:7777/tsfile/live/1028_1.m3u8?key=txiptv&playlive=1&authid=0
第一财经,http://116.234.54.1:7777/tsfile/live/1029_1.m3u8?key=txiptv&playlive=1&authid=0
五星体育,http://116.234.54.1:7777/tsfile/live/1030_1.m3u8?key=txiptv&playlive=1&authid=0
东方财经,http://116.234.54.1:7777/tsfile/live/1031_1.m3u8?key=txiptv&playlive=1&authid=0
ICS频道,http://116.234.54.1:7777/tsfile/live/1032_1.m3u8?key=txiptv&playlive=1&authid=0
上海教育台,http://116.234.54.1:7777/tsfile/live/1033_1.m3u8?key=txiptv&playlive=1&authid=0
七彩戏剧,http://116.234.54.1:7777/tsfile/live/1034_1.m3u8?key=txiptv&playlive=1&authid=0
法治天地,http://116.234.54.1:7777/tsfile/live/1035_1.m3u8?key=txiptv&playlive=1&authid=0
金色学堂,http://116.234.54.1:7777/tsfile/live/1036_1.m3u8?key=txiptv&playlive=1&authid=0
央视,#genre#
CCTV1,http://116.234.54.1:7777/tsfile/live/0001_1.m3u8?key=txiptv&playlive=1&authid=0
CCTV2,http://116.234.54.1:7777/tsfile/live/0002_1.m3u8?key=txiptv&playlive=1&authid=0
CCTV3,http://116.234.54.1:7777/tsfile/live/0003_1.m3u8?key=txiptv&playlive=1&authid=0
CCTV4,http://116.234.54.1:7777/tsfile/live/0004_1.m3u8?key=txiptv&playlive=1&authid=0
CCTV5,http://116.234.54.1:7777/tsfile/live/0005_1.m3u8?key=txiptv&playlive=1&authid=0
CCTV5+,http://116.234.54.1:7777/tsfile/live/0016_1.m3u8?key=txiptv&playlive=1&authid=0
CCTV6,http://116.234.54.1:7777/tsfile/live/0006_1.m3u8?key=txiptv&playlive=1&authid=0
CCTV7,http://116.234.54.1:7777/tsfile/live/0007_1.m3u8?key=txiptv&playlive=1&authid=0
CCTV8,http://116.234.54.1:7777/tsfile/live/0008_1.m3u8?key=txiptv&playlive=1&authid=0
CGTN,http://116.234.54.1:7777/tsfile/live/1037_1.m3u8?key=txiptv&playlive=1&authid=0
CCTV9,http://116.234.54.1:7777/tsfile/live/0009_1.m3u8?key=txiptv&playlive=1&authid=0
CCTV10,http://116.234.54.1:7777/tsfile/live/0010_1.m3u8?key=txiptv&playlive=1&authid=0
CCTV11,http://116.234.54.1:7777/tsfile/live/0011_1.m3u8?key=txiptv&playlive=1&authid=0
CCTV12,http://116.234.54.1:7777/tsfile/live/0012_1.m3u8?key=txiptv&playlive=1&authid=0
CCTV13,http://116.234.54.1:7777/tsfile/live/0013_1.m3u8?key=txiptv&playlive=1&authid=0
CCTV14,http://116.234.54.1:7777/tsfile/live/0014_1.m3u8?key=txiptv&playlive=1&authid=0
CCTV15,http://116.234.54.1:7777/tsfile/live/0015_1.m3u8?key=txiptv&playlive=1&authid=0
CCTV16,http://116.234.54.1:7777/tsfile/live/1038_1.m3u8?key=txiptv&playlive=1&authid=0
CCTV17,http://116.234.54.1:7777/tsfile/live/1039_1.m3u8?key=txiptv&playlive=1&authid=0
其他,#genre#
财富天下,http://116.234.54.1:7777/tsfile/live/1040_1.m3u8?key=txiptv&playlive=1&authid=0
CETV,http://116.234.54.1:7777/tsfile/live/1041_1.m3u8?key=txiptv&playlive=1&authid=0
金鹰纪实,http://116.234.54.1:7777/tsfile/live/1042_1.m3u8?key=txiptv&playlive=1&authid=0
纪实科教,http://116.234.54.1:7777/tsfile/live/1043_1.m3u8?key=txiptv&playlive=1&authid=0
卡酷少儿,http://116.234.54.1:7777/tsfile/live/1044_1.m3u8?key=txiptv&playlive=1&authid=0
金鹰卡通,http://116.234.54.1:7777/tsfile/live/1045_1.m3u8?key=txiptv&playlive=1&authid=0
嘉佳卡通,http://116.234.54.1:7777/tsfile/live/1046_1.m3u8?key=txiptv&playlive=1&authid=0
卡酷卡通,http://116.234.54.1:7777/tsfile/live/1047_1.m3u8?key=txiptv&playlive=1&authid=0
快乐垂钓,http://116.234.54.1:7777/tsfile/live/1048_1.m3u8?key=txiptv&playlive=1&authid=0
茶频道,http://116.234.54.1:7777/tsfile/live/1049_1.m3u8?key=txiptv&playlive=1&authid=0
游戏风云,http://116.234.54.1:7777/tsfile/live/1050_1.m3u8?key=txiptv&playlive=1&authid=0
生活时尚,http://116.234.54.1:7777/tsfile/live/1051_1.m3u8?key=txiptv&playlive=1&authid=0
动漫秀场,http://116.234.54.1:7777/tsfile/live/1052_1.m3u8?key=txiptv&playlive=1&authid=0
都市剧场,http://116.234.54.1:7777/tsfile/live/1053_1.m3u8?key=txiptv&playlive=1&authid=0
欢笑剧场,http://116.234.54.1:7777/tsfile/live/1054_1.m3u8?key=txiptv&playlive=1&authid=0
卫视台,#genre#
北京卫视,http://116.234.54.1:7777/tsfile/live/0122_1.m3u8?key=txiptv&playlive=1&authid=0
江苏卫视,http://116.234.54.1:7777/tsfile/live/0127_1.m3u8?key=txiptv&playlive=1&authid=0
浙江卫视,http://116.234.54.1:7777/tsfile/live/0124_1.m3u8?key=txiptv&playlive=1&authid=0
湖南卫视,http://116.234.54.1:7777/tsfile/live/0128_1.m3u8?key=txiptv&playlive=1&authid=0
山东卫视,http://116.234.54.1:7777/tsfile/live/0131_1.m3u8?key=txiptv&playlive=1&authid=0
黑龙江卫视,http://116.234.54.1:7777/tsfile/live/0143_1.m3u8?key=txiptv&playlive=1&authid=0
安徽卫视,http://116.234.54.1:7777/tsfile/live/0130_1.m3u8?key=txiptv&playlive=1&authid=0
天津卫视,http://116.234.54.1:7777/tsfile/live/0135_1.m3u8?key=txiptv&playlive=1&authid=0
江西卫视,http://116.234.54.1:7777/tsfile/live/0138_1.m3u8?key=txiptv&playlive=1&authid=0
辽宁卫视,http://116.234.54.1:7777/tsfile/live/0121_1.m3u8?key=txiptv&playlive=1&authid=0
湖北卫视,http://116.234.54.1:7777/tsfile/live/0132_1.m3u8?key=txiptv&playlive=1&authid=0
广东卫视,http://116.234.54.1:7777/tsfile/live/0125_1.m3u8?key=txiptv&playlive=1&authid=0
深圳卫视,http://116.234.54.1:7777/tsfile/live/0126_1.m3u8?key=txiptv&playlive=1&authid=0
东南卫视,http://116.234.54.1:7777/tsfile/live/0137_1.m3u8?key=txiptv&playlive=1&authid=0
海南卫视,http://116.234.54.1:7777/tsfile/live/1055_1.m3u8?key=txiptv&playlive=1&authid=0
贵州卫视,http://116.234.54.1:7777/tsfile/live/0120_1.m3u8?key=txiptv&playlive=1&authid=0
四川卫视,http://116.234.54.1:7777/tsfile/live/0123_1.m3u8?key=txiptv&playlive=1&authid=0
重庆卫视,http://116.234.54.1:7777/tsfile/live/0142_1.m3u8?key=txiptv&playlive=1&authid=0
河北卫视,http://116.234.54.1:7777/tsfile/live/0117_1.m3u8?key=txiptv&playlive=1&authid=0
内蒙古卫视,http://116.234.54.1:7777/tsfile/live/0109_1.m3u8?key=txiptv&playlive=1&authid=0
河南卫视,http://116.234.54.1:7777/tsfile/live/0139_1.m3u8?key=txiptv&playlive=1&authid=0
山西卫视,http://116.234.54.1:7777/tsfile/live/0118_1.m3u8?key=txiptv&playlive=1&authid=0
陕西卫视,http://116.234.54.1:7777/tsfile/live/0136_1.m3u8?key=txiptv&playlive=1&authid=0
甘肃卫视,http://116.234.54.1:7777/tsfile/live/0141_1.m3u8?key=txiptv&playlive=1&authid=0
青海卫视,http://116.234.54.1:7777/tsfile/live/0140_1.m3u8?key=txiptv&playlive=1&authid=0
云南卫视,http://116.234.54.1:7777/tsfile/live/0119_1.m3u8?key=txiptv&playlive=1&authid=0
广西卫视,http://116.234.54.1:7777/tsfile/live/0113_1.m3u8?key=txiptv&playlive=1&authid=0
宁夏卫视,http://116.234.54.1:7777/tsfile/live/0112_1.m3u8?key=txiptv&playlive=1&authid=0
新疆卫视,http://116.234.54.1:7777/tsfile/live/0110_1.m3u8?key=txiptv&playlive=1&authid=0
西藏卫视,http://116.234.54.1:7777/tsfile/live/0111_1.m3u8?key=txiptv&playlive=1&authid=0
吉林卫视,http://116.234.54.1:7777/tsfile/live/0116_1.m3u8?key=txiptv&playlive=1&authid=0
三沙卫视,http://116.234.54.1:7777/tsfile/live/1056_1.m3u8?key=txiptv&playlive=1&authid=0
兵团卫视,http://116.234.54.1:7777/tsfile/live/0115_1.m3u8?key=txiptv&playlive=1&authid=0
